ChipTools Build Report
Run @18:22:19.977 2018-10-15
Polygons in Transistor Layer: 15916
Polygons in Metal Layer: 5622
Polygons in Vias Layer: 10562
Polygons in N_Diffusion Layer: 7332
Total Polygons: 39432
Non-Pullup Transistors: 13521
Final Nodes: 4255
Final Polygons: 37037
Successfully named nodes: 59
Elapsed Build Time: 113071 Milliseconds